<?xml version="1.0" encoding="utf-8"?>
<!-- Generator: Adobe Illustrator 22.1.0, SVG Export Plug-In . SVG Version: 6.00 Build 0)  -->
<svg version="1.1" id="Layer_1" xmlns="http://www.w3.org/2000/svg" xmlns:xlink="http://www.w3.org/1999/xlink" x="0px" y="0px"
	 viewBox="0 0 512 512" style="enable-background:new 0 0 512 512;" xml:space="preserve">
<style type="text/css">
	.st0{fill:#00AA52;}
	.st1{fill:#EB2040;}
	.st2{fill:#FFD250;}
	.st3{fill:#FFFFFF;}
</style>
<g>
	<path class="st0" d="M8.8,88.3c-4.9,0-8.8,4-8.8,8.8v317.8c0,4.9,4,8.8,8.8,8.8h150.1V88.3H8.8z"/>
	<path class="st1" d="M503.2,88.3H353.1v335.4h150.1c4.9,0,8.8-4,8.8-8.8V97.1C512,92.2,508,88.3,503.2,88.3z"/>
	<rect x="158.9" y="88.3" class="st2" width="194.2" height="0"/>
	<rect x="158.9" y="88.3" class="st3" width="194.2" height="335.4"/>
</g>
</svg>
